An investigation of the predictors of thyroid cancer in patients with thyroid nodules
…
        Length Class      Mode   
pre     3      stage_pre  list   
fit     2      stage_fit  list   
post    1      stage_post list   
trained 1      -none-     logical

## it is unclear from the output what predictors were significant, so i need to examin the model to see what predictors were used
preprocessor <- final_fit |> extract_preprocessor()
## view the predictors evaluated
summary(preprocessor)

# A tibble: 23 × 4
   variable             type      role      source  
   <chr>                <list>    <chr>     <chr>   
 1 age_at_scan          <chr [2]> predictor original
 2 gender               <chr [3]> predictor original
 3 ethnicity            <chr [3]> predictor original
 4 incidental_nodule    <chr [3]> predictor original
 5 palpable_nodule      <chr [3]> predictor original
 6 rapid_enlargement    <chr [3]> predictor original
 7 compressive_symptoms <chr [3]> predictor original
 8 hypertension         <chr [3]> predictor original
 9 vocal_cord_paresis   <chr [3]> predictor original
10 graves_disease       <chr [3]> predictor original
# ℹ 13 more rows
…
